^C:\USERS\PINKO\DOCUMENTS\TSTU\OOP 24\LAB1\MAIN\DEBUG\LABFUNCTION.OBJ|C:\USERS\PINKO\DOCUMENTS\TSTU\OOP 24\LAB1\MAIN\DEBUG\MAIN.OBJ
C:\USERS\PINKO\DOCUMENTS\TSTU\OOP 24\LAB1\DEBUG\MAIN.EXE
C:\USERS\PINKO\DOCUMENTS\TSTU\OOP 24\LAB1\DEBUG\MAIN.ILK
C:\USERS\PINKO\DOCUMENTS\TSTU\OOP 24\LAB1\DEBUG\MAIN.PDB
